Troutman Lab - An introductory exploration of RNA-seq data using R and tidyverse
…
── Conflicts ────────────────────────────────────────── tidyverse_conflicts() ──
x dplyr::filter() masks stats::filter()
x dplyr::lag()    masks stats::lag()

Now we can use read_excel() from the readxl package to load our excel spreadsheet. We can use the functions readr:read_csv() or readr:read_tsv() from the readr package to load .csv and .txt files.

# read in our data
tb1 <- 
  readxl::read_excel(
  path = "../Data/Source/1-s2.0-S107476132030159X-mmc3.xlsx") 

tb1

# A tibble: 40,458 × 48
   `Transcript/RepeatID (cm…` `Annotation/Di…` `KCH_rep1_figu…` `KCH_rep2_figu…`
   <chr>                      <chr>                       <dbl>            <dbl>
 1 NM_001329047               Mia2|Ctage5|D12…            43.6             36.3 
 2 NM_172405                  Abraxas1|383040…             1.91             2.20
 3 NM_001359283               Sec63|5730478J1…            19.3             17.8 
 4 NM_001168290               Sugp2|Sfrs14|Sr…            11.5              8.86
 5 NM_001356498               Mtmr12|3Pap|493…             7.14             8.74
 6 NM_001358950               Cbx5|2610029O15…             6.53             6.21
 7 NM_001166375               March1|2900024D…            58.3             67.8 
 8 NM_178061                  Mob3b|8430436F2…             1.51             1.61
 9 NR_126506                  Mdm4|4933417N07…            29.2             25.6 
10 NR_029557                  Mir145a|Mir145|…             0                0   
# … with 40,448 more rows, and 44 more variables: `KCN_rep1_figure1,3,4` <dbl>,
#   `KCN_rep2_figure1,3,4` <dbl>, `KN-RM_rep1_figure1,3,4` <dbl>,
#   `KN-RM_rep2_figure1,3,4` <dbl>, `Ly6CHi-RM_rep1_figure1,3,4` <dbl>,
#   `Ly6CHi-RM_rep2_figure1,3,4` <dbl>, `Ly6CLow-RM_rep1_figure1,3,4` <dbl>,
#   `Ly6CLow-RM_rep2_figure1,3,4` <dbl>,
#   `BloodLy6CHi-Mono_Control_rep1_figure3,4` <dbl>,
#   `BloodLy6CHi-Mono_Control_rep2_figure3,4` <dbl>, …
…
That’s a lot of data, lets only keeps a small part that we want to practice with for now. To do this let’s keep the first two columns, which have gene identifier information, and lets keep the next 4 column which are replicate RNA-seq data for two conditions. To keep these columns, we will use the dplyr::select() verb, which operates on columns.

dplyr::select(.data = tb1, 1:6) 

# A tibble: 40,458 × 6
   `Transcript/RepeatID (cm…` `Annotation/Di…` `KCH_rep1_figu…` `KCH_rep2_figu…`
   <chr>                      <chr>                       <dbl>            <dbl>
 1 NM_001329047               Mia2|Ctage5|D12…            43.6             36.3 
 2 NM_172405                  Abraxas1|383040…             1.91             2.20
 3 NM_001359283               Sec63|5730478J1…            19.3             17.8 
 4 NM_001168290               Sugp2|Sfrs14|Sr…            11.5              8.86
 5 NM_001356498               Mtmr12|3Pap|493…             7.14             8.74
 6 NM_001358950               Cbx5|2610029O15…             6.53             6.21
 7 NM_001166375               March1|2900024D…            58.3             67.8 
 8 NM_178061                  Mob3b|8430436F2…             1.51             1.61
 9 NR_126506                  Mdm4|4933417N07…            29.2             25.6 
10 NR_029557                  Mir145a|Mir145|…             0                0   
# … with 40,448 more rows, and 2 more variables: `KCN_rep1_figure1,3,4` <dbl>,
#   `KCN_rep2_figure1,3,4` <dbl>

# this format gives us column 1 to 6, and everything between

dplyr::select(.data = tb1, c(1, 2, 3, 4, 5, 6)) 

# A tibble: 40,458 × 6
   `Transcript/RepeatID (cm…` `Annotation/Di…` `KCH_rep1_figu…` `KCH_rep2_figu…`
   <chr>                      <chr>                       <dbl>            <dbl>
 1 NM_001329047               Mia2|Ctage5|D12…            43.6             36.3 
 2 NM_172405                  Abraxas1|383040…             1.91             2.20
 3 NM_001359283               Sec63|5730478J1…            19.3             17.8 
 4 NM_001168290               Sugp2|Sfrs14|Sr…            11.5              8.86
 5 NM_001356498               Mtmr12|3Pap|493…             7.14             8.74
 6 NM_001358950               Cbx5|2610029O15…             6.53             6.21
 7 NM_001166375               March1|2900024D…            58.3             67.8 
 8 NM_178061                  Mob3b|8430436F2…             1.51             1.61
 9 NR_126506                  Mdm4|4933417N07…            29.2             25.6 
10 NR_029557                  Mir145a|Mir145|…             0                0   
# … with 40,448 more rows, and 2 more variables: `KCN_rep1_figure1,3,4` <dbl>,
#   `KCN_rep2_figure1,3,4` <dbl>

# this format declares which columns to keep in order

We can also pipe commands from left to right using magrittr %\>% operator. This allows us to chain operations together so that we don’t need to define a bunch of variables to store in memory, or overwrite variables by reusing variable names. Reusing variable names can lead to bugs in our analyses (if we aren’t careful)!

tb1 <- readxl::read_xlsx(
  path = "../Data/Source/1-s2.0-S107476132030159X-mmc3.xlsx") %>% 
  dplyr::select(1:6) 
tb1

# A tibble: 40,458 × 6
   `Transcript/RepeatID (cm…` `Annotation/Di…` `KCH_rep1_figu…` `KCH_rep2_figu…`
   <chr>                      <chr>                       <dbl>            <dbl>
 1 NM_001329047               Mia2|Ctage5|D12…            43.6             36.3 
 2 NM_172405                  Abraxas1|383040…             1.91             2.20
 3 NM_001359283               Sec63|5730478J1…            19.3             17.8 
 4 NM_001168290               Sugp2|Sfrs14|Sr…            11.5              8.86
 5 NM_001356498               Mtmr12|3Pap|493…             7.14             8.74
 6 NM_001358950               Cbx5|2610029O15…             6.53             6.21
 7 NM_001166375               March1|2900024D…            58.3             67.8 
 8 NM_178061                  Mob3b|8430436F2…             1.51             1.61
 9 NR_126506                  Mdm4|4933417N07…            29.2             25.6 
10 NR_029557                  Mir145a|Mir145|…             0                0   
# … with 40,448 more rows, and 2 more variables: `KCN_rep1_figure1,3,4` <dbl>,
#   `KCN_rep2_figure1,3,4` <dbl>

These column names could be made easier. Let’s rename them using the dplyr verb dplyr::rename.

tb1 <- readxl::read_xlsx(
  path = "../Data/Source/1-s2.0-S107476132030159X-mmc3.xlsx") 
tb1 <- dplyr::select(tb1, 1:6)
tb1 <- rename(.data = tb1, accession = 1, gene = 2, kch_rep1 = 3, kch_rep2 = 4, kn_rep1 = 5, kn_rep2 = 6)
tb1

# A tibble: 40,458 × 6
   accession    gene                           kch_rep1 kch_rep2 kn_rep1 kn_rep2
   <chr>        <chr>                             <dbl>    <dbl>   <dbl>   <dbl>
 1 NM_001329047 Mia2|Ctage5|D12Bwg0579e|Mea6|…    43.6     36.3   29.6    26.8  
 2 NM_172405    Abraxas1|3830405G04Rik|563040…     1.91     2.20   1.95    1.82 
 3 NM_001359283 Sec63|5730478J10Rik|AI649014|…    19.3     17.8   13.2    12.9  
 4 NM_001168290 Sugp2|Sfrs14|Srsf14|mKIAA0365…    11.5      8.86  10.9     7.57 
 5 NM_001356498 Mtmr12|3Pap|4932703C11|C73001…     7.14     8.74   6.71    6.84 
 6 NM_001358950 Cbx5|2610029O15Rik|C75991|HP1…     6.53     6.21   5.86    7.20 
 7 NM_001166375 March1|2900024D24Rik|BB085186…    58.3     67.8   49.4    50.2  
 8 NM_178061    Mob3b|8430436F23Rik|A430018A0…     1.51     1.61   0.729   0.906
 9 NR_126506    Mdm4|4933417N07Rik|AA414968|A…    29.2     25.6   16.4    13.3  
10 NR_029557    Mir145a|Mir145|Mirn145|mir-14…     0        0      0       0    
# … with 40,448 more rows
…
tb1 <-
  readxl::read_xlsx(path = "../Data/Source/1-s2.0-S107476132030159X-mmc3.xlsx") %>%
  dplyr::select(1:6) %>%
  dplyr::rename(
    accession = 1,
    gene = 2,
    kch_rep1 = 3,
    kch_rep2 = 4,
    kn_rep1 = 5,
    kn_rep2 = 6
  )
tb1

# A tibble: 40,458 × 6
   accession    gene                           kch_rep1 kch_rep2 kn_rep1 kn_rep2
   <chr>        <chr>                             <dbl>    <dbl>   <dbl>   <dbl>
 1 NM_001329047 Mia2|Ctage5|D12Bwg0579e|Mea6|…    43.6     36.3   29.6    26.8  
 2 NM_172405    Abraxas1|3830405G04Rik|563040…     1.91     2.20   1.95    1.82 
 3 NM_001359283 Sec63|5730478J10Rik|AI649014|…    19.3     17.8   13.2    12.9  
 4 NM_001168290 Sugp2|Sfrs14|Srsf14|mKIAA0365…    11.5      8.86  10.9     7.57 
 5 NM_001356498 Mtmr12|3Pap|4932703C11|C73001…     7.14     8.74   6.71    6.84 
 6 NM_001358950 Cbx5|2610029O15Rik|C75991|HP1…     6.53     6.21   5.86    7.20 
 7 NM_001166375 March1|2900024D24Rik|BB085186…    58.3     67.8   49.4    50.2  
 8 NM_178061    Mob3b|8430436F23Rik|A430018A0…     1.51     1.61   0.729   0.906
 9 NR_126506    Mdm4|4933417N07Rik|AA414968|A…    29.2     25.6   16.4    13.3  
10 NR_029557    Mir145a|Mir145|Mirn145|mir-14…     0        0      0       0    
# … with 40,448 more rows
…
Now lets calculate the within group means for our replicates. But before we do that, we should remember we also need out data to be log2(data+1) transformed.The challenge is we need to tell R that we want to transform each cell from the columns we point it to. We can accomplish this by using the vector function dplyr::across inside of mutate. There are many useful strategies for processing data by combining the mutate verb and across function.

tb1 %>%
  mutate(
    across(
# define the columns to mutate      
      .cols = 3:6, 
# define the function, the '.' represents the data in each cell    
      .fns = ~ log2(. + 1) 
    )
  )

# A tibble: 40,458 × 6
   accession    gene                           kch_rep1 kch_rep2 kn_rep1 kn_rep2
   <chr>        <chr>                             <dbl>    <dbl>   <dbl>   <dbl>
 1 NM_001329047 Mia2|Ctage5|D12Bwg0579e|Mea6|…     5.48     5.22   4.94    4.80 
 2 NM_172405    Abraxas1|3830405G04Rik|563040…     1.54     1.68   1.56    1.49 
 3 NM_001359283 Sec63|5730478J10Rik|AI649014|…     4.34     4.23   3.83    3.79 
 4 NM_001168290 Sugp2|Sfrs14|Srsf14|mKIAA0365…     3.64     3.30   3.58    3.10 
 5 NM_001356498 Mtmr12|3Pap|4932703C11|C73001…     3.03     3.28   2.95    2.97 
 6 NM_001358950 Cbx5|2610029O15Rik|C75991|HP1…     2.91     2.85   2.78    3.04 
 7 NM_001166375 March1|2900024D24Rik|BB085186…     5.89     6.10   5.66    5.68 
 8 NM_178061    Mob3b|8430436F23Rik|A430018A0…     1.33     1.38   0.790   0.931
 9 NR_126506    Mdm4|4933417N07Rik|AA414968|A…     4.92     4.73   4.12    3.84 
10 NR_029557    Mir145a|Mir145|Mirn145|mir-14…     0        0      0       0    
# … with 40,448 more rows
…
tb1 %>%
  mutate(
    across(
# define the columns to mutate      
      .cols = 3:6, 
# define the function, the '.' represents the data in each cell      
      .fns = ~ log2(. + 1) 
    )
  ) %>%
  mutate(
    kch_mean = (kch_rep1 + kch_rep2)/2,
    kn_mean = (kn_rep1 + kn_rep2)/2
  )

# A tibble: 40,458 × 8
   accession    gene          kch_rep1 kch_rep2 kn_rep1 kn_rep2 kch_mean kn_mean
   <chr>        <chr>            <dbl>    <dbl>   <dbl>   <dbl>    <dbl>   <dbl>
 1 NM_001329047 Mia2|Ctage5|…     5.48     5.22   4.94    4.80      5.35   4.87 
 2 NM_172405    Abraxas1|383…     1.54     1.68   1.56    1.49      1.61   1.53 
 3 NM_001359283 Sec63|573047…     4.34     4.23   3.83    3.79      4.29   3.81 
 4 NM_001168290 Sugp2|Sfrs14…     3.64     3.30   3.58    3.10      3.47   3.34 
 5 NM_001356498 Mtmr12|3Pap|…     3.03     3.28   2.95    2.97      3.16   2.96 
 6 NM_001358950 Cbx5|2610029…     2.91     2.85   2.78    3.04      2.88   2.91 
 7 NM_001166375 March1|29000…     5.89     6.10   5.66    5.68      6.00   5.67 
 8 NM_178061    Mob3b|843043…     1.33     1.38   0.790   0.931     1.36   0.860
 9 NR_126506    Mdm4|4933417…     4.92     4.73   4.12    3.84      4.82   3.98 
10 NR_029557    Mir145a|Mir1…     0        0      0       0         0      0    
# … with 40,448 more rows
…
Ok great, but now we really want to know the identity of the genes with the largest differences! Let’s make a new variable with only those genes. We normally accomplish this using differential expression analysis. Today let’s use a simpler strategy by just comparing the fold-change.

Remember, in logarithmic mathematics, log2(x+1) - log2(y+1) is equal to log2((x+1) / (y+1)). Since our data is already log transformed, the fold change is computer by comparing the difference of the numbers.

tb2 %>% 
  mutate(
    logFC = kch_mean - kn_mean
  )

# A tibble: 40,458 × 9
   accession    gene  kch_rep1 kch_rep2 kn_rep1 kn_rep2 kch_mean kn_mean   logFC
   <chr>        <chr>    <dbl>    <dbl>   <dbl>   <dbl>    <dbl>   <dbl>   <dbl>
 1 NM_001329047 Mia2…     5.48     5.22   4.94    4.80      5.35   4.87   0.483 
 2 NM_172405    Abra…     1.54     1.68   1.56    1.49      1.61   1.53   0.0830
 3 NM_001359283 Sec6…     4.34     4.23   3.83    3.79      4.29   3.81   0.474 
 4 NM_001168290 Sugp…     3.64     3.30   3.58    3.10      3.47   3.34   0.136 
 5 NM_001356498 Mtmr…     3.03     3.28   2.95    2.97      3.16   2.96   0.196 
 6 NM_001358950 Cbx5…     2.91     2.85   2.78    3.04      2.88   2.91  -0.0253
 7 NM_001166375 Marc…     5.89     6.10   5.66    5.68      6.00   5.67   0.330 
 8 NM_178061    Mob3…     1.33     1.38   0.790   0.931     1.36   0.860  0.496 
 9 NR_126506    Mdm4…     4.92     4.73   4.12    3.84      4.82   3.98   0.845 
10 NR_029557    Mir1…     0        0      0       0         0      0      0     
# … with 40,448 more rows

Ok, now lets identify the instance were the logFC is > 1 or < -1. In other words, a fold change greater than ‘2’. For this we will use a new dplyr verb, dplyr::filter, which operates on data rows. We also will need to use an R logical operator. With R, | is equivalent to or, & is equivalent to and. Read more here: https://www.statmethods.net/management/operators.html

tb2 %>% 
  mutate(
    logFC = kch_mean - kn_mean
  ) %>%
  filter(logFC > 1 | logFC < -1)

# A tibble: 1,757 × 9
   accession    gene    kch_rep1 kch_rep2 kn_rep1 kn_rep2 kch_mean kn_mean logFC
   <chr>        <chr>      <dbl>    <dbl>   <dbl>   <dbl>    <dbl>   <dbl> <dbl>
 1 NM_021334    Itgax|…    2.06     2.05     6.58    7.04    2.06     6.81 -4.75
 2 NM_001111059 Cd34|A…    0.579    0.573    2.06    1.86    0.576    1.96 -1.39
 3 NM_022995    Pmepa1…    0.864    1.06     1.89    2.61    0.961    2.25 -1.29
 4 NM_008433    Kcnn4|…    0.840    1.08     3.38    3.75    0.959    3.56 -2.60
 5 NM_001130458 Tcn2|A…    9.61     9.87     8.33    7.84    9.74     8.09  1.65
 6 NR_046233    Rn45s|…   10.9     11.1      8.59   10.5    11.0      9.56  1.46
 7 NM_010730    Anxa1|…    0.766    1.05     3.25    3.90    0.906    3.57 -2.67
 8 NR_122039    Tsc22d…    6.68     6.90     6.09    5.27    6.79     5.68  1.11
 9 NM_001361978 Arsg|6…    2.12     2.56     1.50    1.07    2.34     1.29  1.05
10 NM_145134    Spsb4|…    0.327    0.842    3.03    3.39    0.584    3.21 -2.63
# … with 1,747 more rows
…
      .cols = 3:6, 
# define the function, the '.' represents the data in each cell      
      .fns = ~ log2(. + 1) 
    )
  ) %>%
  mutate(
    kch_mean = (kch_rep1 + kch_rep2)/2,
    kn_mean = (kn_rep1 + kn_rep2)/2
  ) %>% 
  mutate(
    logFC = kch_mean - kn_mean
  )
tb4

# A tibble: 24,941 × 9
   accession    gene  kch_rep1 kch_rep2 kn_rep1 kn_rep2 kch_mean kn_mean   logFC
   <chr>        <chr>    <dbl>    <dbl>   <dbl>   <dbl>    <dbl>   <dbl>   <dbl>
 1 NM_001329047 Mia2      5.48     5.22   4.94    4.80      5.35   4.87   0.483 
 2 NM_172405    Abra…     1.54     1.68   1.56    1.49      1.61   1.53   0.0830
 3 NM_001359283 Sec63     4.34     4.23   3.83    3.79      4.29   3.81   0.474 
 4 NM_001168290 Sugp2     3.64     3.30   3.58    3.10      3.47   3.34   0.136 
 5 NM_001356498 Mtmr…     3.03     3.28   2.95    2.97      3.16   2.96   0.196 
 6 NM_001358950 Cbx5      2.91     2.85   2.78    3.04      2.88   2.91  -0.0253
 7 NM_001166375 Marc…     5.89     6.10   5.66    5.68      6.00   5.67   0.330 
 8 NM_178061    Mob3b     1.33     1.38   0.790   0.931     1.36   0.860  0.496 
 9 NR_126506    Mdm4      4.92     4.73   4.12    3.84      4.82   3.98   0.845 
10 NR_029557    Mir1…     0        0      0       0         0      0      0     
# … with 24,931 more rows
…
